<?xml version="1.0" encoding="UTF-8"?>
<svg height="128px" viewBox="0 0 128 128" width="128px" xmlns="http://www.w3.org/2000/svg" xmlns:xlink="http://www.w3.org/1999/xlink">
    <filter id="a" height="100%" width="100%" x="0%" y="0%">
        <feColorMatrix color-interpolation-filters="sRGB" values="0 0 0 0 1 0 0 0 0 1 0 0 0 0 1 0 0 0 1 0"/>
    </filter>
    <linearGradient id="b" gradientTransform="matrix(6.290668 0 0 6.095561 103.731323 52.595951)" gradientUnits="userSpaceOnUse" x1="-0.752117" x2="7.832027" y1="8.761138" y2="8.761138">
        <stop offset="0" stop-color="#ea2c39"/>
        <stop offset="0.0740741" stop-color="#f0707a"/>
        <stop offset="0.148148" stop-color="#ea2c39"/>
        <stop offset="0.849057" stop-color="#ea2c39"/>
        <stop offset="0.925926" stop-color="#f06f79"/>
        <stop offset="1" stop-color="#ea2c39"/>
    </linearGradient>
    <linearGradient id="c" gradientTransform="matrix(6.290668 0 0 6.05771 101.538681 51.538639)" gradientUnits="userSpaceOnUse" x1="0.073334" x2="7.703684" y1="0.076161" y2="15.923734">
        <stop offset="0" stop-color="#ffc77f"/>
        <stop offset="1" stop-color="#d44b87"/>
    </linearGradient>
    <linearGradient id="d" gradientTransform="matrix(6.290668 0 0 6.095561 -94.268677 18.595947)" gradientUnits="userSpaceOnUse" x1="-0.752117" x2="7.832027" y1="11.221946" y2="11.221946">
        <stop offset="0" stop-color="#292829"/>
        <stop offset="0.0740741" stop-color="#77767b"/>
        <stop offset="0.148148" stop-color="#454345"/>
        <stop offset="0.851852" stop-color="#454345"/>
        <stop offset="0.925926" stop-color="#77767b"/>
        <stop offset="1" stop-color="#292829"/>
    </linearGradient>
    <linearGradient id="e" gradientTransform="matrix(6.290668 0 0 6.05771 -67.461319 26.538637)" gradientUnits="userSpaceOnUse" x1="0.073334" x2="7.703684" y1="0.076161" y2="15.923734">
        <stop offset="0" stop-color="#f77a6e"/>
        <stop offset="1" stop-color="#81eed9"/>
    </linearGradient>
    <linearGradient id="f" gradientUnits="userSpaceOnUse">
        <stop offset="0" stop-color="#e8e7e4"/>
        <stop offset="0.511049" stop-color="#ffffff"/>
        <stop offset="1" stop-color="#c2bfba"/>
    </linearGradient>
    <linearGradient id="g" gradientTransform="matrix(7.579828 0 0 6.500019 66.167755 7.409882)" x1="2.88031" x2="4.199601" xlink:href="#f" y1="16.084866" y2="16.084866"/>
    <linearGradient id="h" gradientTransform="matrix(6.290668 0 0 6.05771 76.538681 26.538637)" gradientUnits="userSpaceOnUse" x1="0.073334" x2="7.115182" y1="0.076161" y2="16.048512">
        <stop offset="0" stop-color="#df96e0"/>
        <stop offset="1" stop-color="#f0575d"/>
    </linearGradient>
    <linearGradient id="i" gradientTransform="matrix(7.579828 0 0 6.500019 8.167753 7.409882)" x1="2.88031" x2="4.199601" xlink:href="#f" y1="16.084866" y2="16.084866"/>
    <mask id="j">
        <g filter="url(#a)">
            <rect fill-opacity="0.5" height="153.6" width="153.6" x="-12.8" y="-12.8"/>
        </g>
    </mask>
    <clipPath id="k">
        <path d="m 78 48 h 34 v 40 h -34 z m 0 0"/>
    </clipPath>
    <clipPath id="l">
        <path d="m 86 33 h 32 c 4.417969 0 8 2.558594 8 5.714844 v 55.714844 c 0 3.15625 -3.582031 5.714843 -8 5.714843 h -32 c -4.417969 0 -8 -2.558593 -8 -5.714843 v -55.714844 c 0 -3.15625 3.582031 -5.714844 8 -5.714844 z m 0 0"/>
    </clipPath>
    <clipPath id="m">
        <path d="m 52 48 h 14 v 40 h -14 z m 0 0"/>
    </clipPath>
    <clipPath id="n">
        <path d="m 58 33 h -32 c -4.417969 0 -8 2.558594 -8 5.714844 v 55.714844 c 0 3.15625 3.582031 5.714843 8 5.714843 h 32 c 4.417969 0 8 -2.558593 8 -5.714843 v -55.714844 c 0 -3.15625 -3.582031 -5.714844 -8 -5.714844 z m 0 0"/>
    </clipPath>
    <clipPath id="o">
        <path d="m 78 64 h 14 v 40 h -14 z m 0 0"/>
    </clipPath>
    <clipPath id="p">
        <path d="m 86 49 h 32 c 4.417969 0 8 2.558594 8 5.714844 v 55.714844 c 0 3.15625 -3.582031 5.714843 -8 5.714843 h -32 c -4.417969 0 -8 -2.558593 -8 -5.714843 v -55.714844 c 0 -3.15625 3.582031 -5.714844 8 -5.714844 z m 0 0"/>
    </clipPath>
    <clipPath id="q">
        <path d="m 36 64 h 30 v 40 h -30 z m 0 0"/>
    </clipPath>
    <clipPath id="r">
        <path d="m 58 49 h -32 c -4.417969 0 -8 2.558594 -8 5.714844 v 55.714844 c 0 3.15625 3.582031 5.714843 8 5.714843 h 32 c 4.417969 0 8 -2.558593 8 -5.714843 v -55.714844 c 0 -3.15625 -3.582031 -5.714844 -8 -5.714844 z m 0 0"/>
    </clipPath>
    <clipPath id="s">
        <rect height="152" width="192"/>
    </clipPath>
    <mask id="t">
        <g filter="url(#a)">
            <rect fill-opacity="0.8" height="153.6" width="153.6" x="-12.8" y="-12.8"/>
        </g>
    </mask>
    <clipPath id="u">
        <path d="m 78 64 h 14 v 40 h -14 z m 0 0"/>
    </clipPath>
    <clipPath id="v">
        <path d="m 86 49 h 32 c 4.417969 0 8 2.558594 8 5.714844 v 55.714844 c 0 3.15625 -3.582031 5.714843 -8 5.714843 h -32 c -4.417969 0 -8 -2.558593 -8 -5.714843 v -55.714844 c 0 -3.15625 3.582031 -5.714844 8 -5.714844 z m 0 0"/>
    </clipPath>
    <clipPath id="w">
        <path d="m 36 64 h 30 v 40 h -30 z m 0 0"/>
    </clipPath>
    <clipPath id="x">
        <path d="m 58 49 h -32 c -4.417969 0 -8 2.558594 -8 5.714844 v 55.714844 c 0 3.15625 3.582031 5.714843 8 5.714843 h 32 c 4.417969 0 8 -2.558593 8 -5.714843 v -55.714844 c 0 -3.15625 -3.582031 -5.714844 -8 -5.714844 z m 0 0"/>
    </clipPath>
    <clipPath id="y">
        <rect height="152" width="192"/>
    </clipPath>
    <g stroke-width="6">
        <path d="m 110 55.398438 h 32 c 4.417969 0 8 3.582031 8 8 v 78.601562 c 0 4.417969 -3.582031 8 -8 8 h -32 c -4.417969 0 -8 -3.582031 -8 -8 v -78.601562 c 0 -4.417969 3.582031 -8 8 -8 z m 0 0" stroke="url(#b)" transform="matrix(1 0 0 1 -33 -41)"/>
        <path d="m 110 52 h 32 c 4.417969 0 8 3.582031 8 8 v 78 c 0 4.417969 -3.582031 8 -8 8 h -32 c -4.417969 0 -8 -3.582031 -8 -8 v -78 c 0 -4.417969 3.582031 -8 8 -8 z m 0 0" fill="url(#c)" stroke="#ef5c67" transform="matrix(1 0 0 1 -33 -41)"/>
        <path d="m -88 21.39844 h 32 c 4.417969 0 8 3.582032 8 8 v 78.601563 c 0 4.417969 -3.582031 8 -8 8 h -32 c -4.417969 0 -8 -3.582031 -8 -8 v -78.601563 c 0 -4.417968 3.582031 -8 8 -8 z m 0 0" stroke="url(#d)" transform="matrix(1 0 0 1 107 -7.000003)"/>
        <path d="m 19 11 h 32 c 4.417969 0 8 3.582031 8 8 v 78 c 0 4.417969 -3.582031 8 -8 8 h -32 c -4.417969 0 -8 -3.582031 -8 -8 v -78 c 0 -4.417969 3.582031 -8 8 -8 z m 0 0" stroke="#5e5c64"/>
    </g>
    <path d="m -59 27 h 32 c 4.417969 0 8 3.582031 8 8 v 78 c 0 4.417969 -3.582031 8 -8 8 h -32 c -4.417969 0 -8 -3.582031 -8 -8 v -78 c 0 -4.417969 3.582031 -8 8 -8 z m 0 0" fill="url(#e)" stroke="#000000" stroke-width="2" transform="matrix(-1 0 0 1 -8 -16)"/>
    <path d="m 24 11 v 2.035156 c 0 2.75 2.300781 4.964844 5.15625 4.964844 h 11.6875 c 2.855469 0 5.15625 -2.214844 5.15625 -4.964844 v -2.035156 z m 0 0"/>
    <path d="m 89.921875 109.078125 h 6.15625 c 1.0625 0 1.921875 0.859375 1.921875 1.921875 v 1.921875 c 0 1.0625 -0.859375 1.925781 -1.921875 1.925781 h -6.15625 c -1.0625 0 -1.921875 -0.863281 -1.921875 -1.925781 v -1.921875 c 0 -1.0625 0.859375 -1.921875 1.921875 -1.921875 z m 0 0" fill="url(#g)"/>
    <path d="m 85 27 h 32 c 4.417969 0 8 3.582031 8 8 v 78 c 0 4.417969 -3.582031 8 -8 8 h -32 c -4.417969 0 -8 -3.582031 -8 -8 v -78 c 0 -4.417969 3.582031 -8 8 -8 z m 0 0" fill="url(#h)" stroke="#000000" stroke-width="2" transform="matrix(1 0 0 1 -8 -16)"/>
    <path d="m 81 18.5 c 0 1.933594 -1.566406 3.5 -3.5 3.5 s -3.5 -1.566406 -3.5 -3.5 s 1.566406 -3.5 3.5 -3.5 s 3.5 1.566406 3.5 3.5 z m 0 0"/>
    <path d="m 31.921875 109.078125 h 6.15625 c 1.0625 0 1.921875 0.859375 1.921875 1.921875 v 1.921875 c 0 1.0625 -0.859375 1.925781 -1.921875 1.925781 h -6.15625 c -1.0625 0 -1.921875 -0.863281 -1.921875 -1.925781 v -1.921875 c 0 -1.0625 0.859375 -1.921875 1.921875 -1.921875 z m 0 0" fill="url(#i)"/>
    <path d="m 93 112 c 1.105469 0 2 0.894531 2 2 c 0 5.5 -4.5 10 -10 10 h -42 c -5.5 0 -10 -4.5 -10 -10 c 0 -1.105469 0.894531 -2 2 -2 s 2 0.894531 2 2 c 0 3.335938 2.664062 6 6 6 h 42 c 3.335938 0 6 -2.664062 6 -6 c 0 -1.105469 0.894531 -2 2 -2 z m 0 0" fill="#deddda"/>
    <path d="m 94.96875 113.652344 c -0.34375 5.195312 -4.691406 9.347656 -9.96875 9.347656 h -42 c -5.230469 0 -9.550781 -4.074219 -9.957031 -9.207031 c -0.019531 0.066406 -0.03125 0.136719 -0.042969 0.207031 c 0 5.5 4.5 10 10 10 h 42 c 5.5 0 10 -4.5 10 -10 c 0 -0.117188 -0.011719 -0.234375 -0.03125 -0.347656 z m 0 0" fill="#c0bfbc"/>
    <g mask="url(#j)">
        <g clip-path="url(#s)" transform="matrix(1 0 0 1 -8 -16)">
            <g clip-path="url(#k)">
                <g clip-path="url(#l)">
                    <path d="m 67 48 h 41 c 2.210938 0 4 1.789062 4 4 v 32 c 0 2.210938 -1.789062 4 -4 4 h -41 c -2.210938 0 -4 -1.789062 -4 -4 v -32 c 0 -2.210938 1.789062 -4 4 -4 z m 0 0" fill="#ffffff"/>
                </g>
            </g>
            <g clip-path="url(#m)">
                <g clip-path="url(#n)">
                    <path d="m 77 48 h -21 c -2.210938 0 -4 1.789062 -4 4 v 32 c 0 2.210938 1.789062 4 4 4 h 21 c 2.210938 0 4 -1.789062 4 -4 v -32 c 0 -2.210938 -1.789062 -4 -4 -4 z m 0 0" fill="#ffffff"/>
                </g>
            </g>
            <g clip-path="url(#o)">
                <g clip-path="url(#p)">
                    <path d="m 67 64 h 21 c 2.210938 0 4 1.789062 4 4 v 32 c 0 2.210938 -1.789062 4 -4 4 h -21 c -2.210938 0 -4 -1.789062 -4 -4 v -32 c 0 -2.210938 1.789062 -4 4 -4 z m 0 0" fill="#ffffff"/>
                </g>
            </g>
            <g clip-path="url(#q)">
                <g clip-path="url(#r)">
                    <path d="m 77 64 h -37 c -2.210938 0 -4 1.789062 -4 4 v 32 c 0 2.210938 1.789062 4 4 4 h 37 c 2.210938 0 4 -1.789062 4 -4 v -32 c 0 -2.210938 -1.789062 -4 -4 -4 z m 0 0" fill="#ffffff"/>
                </g>
            </g>
        </g>
    </g>
    <g mask="url(#t)">
        <g clip-path="url(#y)" transform="matrix(1 0 0 1 -8 -16)">
            <g clip-path="url(#u)">
                <g clip-path="url(#v)">
                    <path d="m 67 64 h 21 c 2.210938 0 4 1.789062 4 4 v 32 c 0 2.210938 -1.789062 4 -4 4 h -21 c -2.210938 0 -4 -1.789062 -4 -4 v -32 c 0 -2.210938 1.789062 -4 4 -4 z m 0 0" fill="#ffffff"/>
                </g>
            </g>
            <g clip-path="url(#w)">
                <g clip-path="url(#x)">
                    <path d="m 77 64 h -37 c -2.210938 0 -4 1.789062 -4 4 v 32 c 0 2.210938 1.789062 4 4 4 h 37 c 2.210938 0 4 -1.789062 4 -4 v -32 c 0 -2.210938 -1.789062 -4 -4 -4 z m 0 0" fill="#ffffff"/>
                </g>
            </g>
        </g>
    </g>
</svg>
